{
  "host": "localhost",
  "port": 3030,
  "public": "../public/",
  "paginate": {
    "default": 10,
    "max": 50
  },
  "authentication": {
    "entity": "user",
    "service": "users",
    "secret": "AUTH_SECRET",
    "authStrategies": [
      "jwt",
      "local"
    ],
    "jwtOptions": {
      "header": {
        "typ": "access"
      },
      "audience": "AUTH_AUDIENCE",
      "issuer": "AUTH_ISSUER",
      "algorithm": "HS256",
      "expiresIn": "1d"
    },
    "local": {
      "usernameField": "email",
      "passwordField": "password"
    }
  },
  "admin": {
    "email": "ADMIN_EMAIL",
    "password": "ADMIN_PASSWORD"
  },
  "mysql": "mysql://MYSQL_USER:MYSQL_PASSWORD@MYSQL_HOST/MYSQL_DATABASE"
}